digraph "src/main.cpp"
{
  edge [fontname="Helvetica",fontsize="10",labelfontname="Helvetica",labelfontsize="10"];
  node [fontname="Helvetica",fontsize="10",shape=record];
  Node1 [label="src/main.cpp",height=0.2,width=0.4,color="black", fillcolor="grey75", style="filled", fontcolor="black"];
  Node1 -> Node2 [color="midnightblue",fontsize="10",style="solid"];
  Node2 [label="iostream",height=0.2,width=0.4,color="grey75", fillcolor="white", style="filled"];
  Node1 -> Node3 [color="midnightblue",fontsize="10",style="solid"];
  Node3 [label="player.h",height=0.2,width=0.4,color="black", fillcolor="white", style="filled",URL="$player_8h_source.html"];
  Node1 -> Node4 [color="midnightblue",fontsize="10",style="solid"];
  Node4 [label="round.h",height=0.2,width=0.4,color="black", fillcolor="white", style="filled",URL="$round_8h.html",tooltip="Arquivo de cabeçalho contendo a definição das funções que controlam as ações de uma rodada..."];
}
